999
dxflib 2.1.2.0
  0
SECTION
  2
HEADER
  9
$ACADVER
  1
AC1015
  9
$HANDSEED
  5
FFFF
  9
$DIMASZ
 40
2.5
  9
$PLIMMIN
 10
0.0
 20
0.0
  9
$DIMEXE
 40
1.25
  9
$DIMGAP
 40
0.625
  9
$PLIMMAX
 10
210.0
 20
297.0
  9
$INSUNITS
 70
4
  9
$DIMSTYLE
  2
Standard
  9
$CLAYER
  8
sync
  9
$DIMEXO
 40
0.625
  9
$DIMTXT
 40
2.5
  9
$CLAYER
  8
xyuv
  0
ENDSEC
  0
SECTION
  2
TABLES
  0
TABLE
  2
VPORT
  5
8
100
AcDbSymbolTable
 70
1
  0
VPORT
  5
30
100
AcDbSymbolTableRecord
100
AcDbViewportTableRecord
  2
*Active
 70
0
 10
0.0
 20
0.0
 11
1.0
 21
1.0
 12
286.3055555555554861
 22
148.5
 13
0.0
 23
0.0
 14
10.0
 24
10.0
 15
10.0
 25
10.0
 16
0.0
 26
0.0
 36
1.0
 17
0.0
 27
0.0
 37
0.0
 40
297.0
 41
1.92798353909465
 42
50.0
 43
0.0
 44
0.0
 50
0.0
 51
0.0
 71
0
 72
100
 73
1
 74
3
 75
1
 76
1
 77
0
 78
0
281
0
 65
1
110
0.0
120
0.0
130
0.0
111
1.0
121
0.0
131
0.0
112
0.0
122
1.0
132
0.0
 79
0
146
0.0
  0
ENDTAB
  0
TABLE
  2
LTYPE
  5
5
100
AcDbSymbolTable
 70
21
  0
LTYPE
  5
14
100
AcDbSymbolTableRecord
100
AcDbLinetypeTableRecord
  2
ByBlock
 70
0
  3

 72
65
 73
0
 40
0.0
  0
LTYPE
  5
15
100
AcDbSymbolTableRecord
100
AcDbLinetypeTableRecord
  2
ByLayer
 70
0
  3

 72
65
 73
0
 40
0.0
  0
LTYPE
  5
16
100
AcDbSymbolTableRecord
100
AcDbLinetypeTableRecord
  2
CONTINUOUS
 70
0
  3
Solid line
 72
65
 73
0
 40
0.0
  0
LTYPE
  5
31
100
AcDbSymbolTableRecord
100
AcDbLinetypeTableRecord
  2
DOT
 70
0
  3
Dot . . . . . . . . . . . . . . . . . . . . . .
 72
65
 73
2
 40
6.3499999999999996
 49
0.0
 74
0
 49
-6.3499999999999996
 74
0
  0
LTYPE
  5
32
100
AcDbSymbolTableRecord
100
AcDbLinetypeTableRecord
  2
DOT2
 70
0
  3
Dot (.5x) .....................................
 72
65
 73
2
 40
3.1749999999999998
 49
0.0
 74
0
 49
-3.1749999999999998
 74
0
  0
LTYPE
  5
33
100
AcDbSymbolTableRecord
100
AcDbLinetypeTableRecord
  2
DOTX2
 70
0
  3
Dot (2x) .  .  .  .  .  .  .  .  .  .  .  .  .
 72
65
 73
2
 40
12.6999999999999993
 49
0.0
 74
0
 49
-12.6999999999999993
 74
0
  0
LTYPE
  5
34
100
AcDbSymbolTableRecord
100
AcDbLinetypeTableRecord
  2
DASHED
 70
0
  3
Dashed __ __ __ __ __ __ __ __ __ __ __ __ __ _
 72
65
 73
2
 40
19.0500000000000007
 49
12.6999999999999993
 74
0
 49
-6.3499999999999996
 74
0
  0
LTYPE
  5
35
100
AcDbSymbolTableRecord
100
AcDbLinetypeTableRecord
  2
DASHED2
 70
0
  3
Dashed (.5x) _ _ _ _ _ _ _ _ _ _ _ _ _ _ _ _ _
 72
65
 73
2
 40
9.5250000000000004
 49
6.3499999999999996
 74
0
 49
-3.1749999999999998
 74
0
  0
LTYPE
  5
36
100
AcDbSymbolTableRecord
100
AcDbLinetypeTableRecord
  2
DASHEDX2
 70
0
  3
Dashed (2x) ____  ____  ____  ____  ____  ___
 72
65
 73
2
 40
38.1000000000000014
 49
25.3999999999999986
 74
0
 49
-12.6999999999999993
 74
0
  0
LTYPE
  5
37
100
AcDbSymbolTableRecord
100
AcDbLinetypeTableRecord
  2
DASHDOT
 70
0
  3
Dash dot __ . __ . __ . __ . __ . __ . __ . __
 72
65
 73
4
 40
25.3999999999999986
 49
12.6999999999999993
 74
0
 49
-6.3499999999999996
 74
0
 49
0.0
 74
0
 49
-6.3499999999999996
 74
0
  0
LTYPE
  5
38
100
AcDbSymbolTableRecord
100
AcDbLinetypeTableRecord
  2
DASHDOT2
 70
0
  3
Dash dot (.5x) _._._._._._._._._._._._._._._.
 72
65
 73
4
 40
12.6999999999999993
 49
6.3499999999999996
 74
0
 49
-3.1749999999999998
 74
0
 49
0.0
 74
0
 49
-3.1749999999999998
 74
0
  0
LTYPE
  5
39
100
AcDbSymbolTableRecord
100
AcDbLinetypeTableRecord
  2
DASHDOTX2
 70
0
  3
Dash dot (2x) ____  .  ____  .  ____  .  ___
 72
65
 73
4
 40
50.7999999999999972
 49
25.3999999999999986
 74
0
 49
-12.6999999999999993
 74
0
 49
0.0
 74
0
 49
-12.6999999999999993
 74
0
  0
LTYPE
  5
3A
100
AcDbSymbolTableRecord
100
AcDbLinetypeTableRecord
  2
DIVIDE
 70
0
  3
Divide ____ . . ____ . . ____ . . ____ . . ____
 72
65
 73
6
 40
31.75
 49
12.6999999999999993
 74
0
 49
-6.3499999999999996
 74
0
 49
0.0
 74
0
 49
-6.3499999999999996
 74
0
 49
0.0
 74
0
 49
-6.3499999999999996
 74
0
  0
LTYPE
  5
3B
100
AcDbSymbolTableRecord
100
AcDbLinetypeTableRecord
  2
DIVIDE2
 70
0
  3
Divide (.5x) __..__..__..__..__..__..__..__.._
 72
65
 73
6
 40
15.875
 49
6.3499999999999996
 74
0
 49
-3.1749999999999998
 74
0
 49
0.0
 74
0
 49
-3.1749999999999998
 74
0
 49
0.0
 74
0
 49
-3.1749999999999998
 74
0
  0
LTYPE
  5
3C
100
AcDbSymbolTableRecord
100
AcDbLinetypeTableRecord
  2
DIVIDEX2
 70
0
  3
Divide (2x) ________  .  .  ________  .  .  _
 72
65
 73
6
 40
63.5
 49
25.3999999999999986
 74
0
 49
-12.6999999999999993
 74
0
 49
0.0
 74
0
 49
-12.6999999999999993
 74
0
 49
0.0
 74
0
 49
-12.6999999999999993
 74
0
  0
LTYPE
  5
3D
100
AcDbSymbolTableRecord
100
AcDbLinetypeTableRecord
  2
CENTER
 70
0
  3
Center ____ _ ____ _ ____ _ ____ _ ____ _ ____
 72
65
 73
4
 40
50.7999999999999972
 49
31.75
 74
0
 49
-6.3499999999999996
 74
0
 49
6.3499999999999996
 74
0
 49
-6.3499999999999996
 74
0
  0
LTYPE
  5
3E
100
AcDbSymbolTableRecord
100
AcDbLinetypeTableRecord
  2
CENTER2
 70
0
  3
Center (.5x) ___ _ ___ _ ___ _ ___ _ ___ _ ___
 72
65
 73
4
 40
28.5749999999999993
 49
19.0500000000000007
 74
0
 49
-3.1749999999999998
 74
0
 49
3.1749999999999998
 74
0
 49
-3.1749999999999998
 74
0
  0
LTYPE
  5
3F
100
AcDbSymbolTableRecord
100
AcDbLinetypeTableRecord
  2
CENTERX2
 70
0
  3
Center (2x) ________  __  ________  __  _____
 72
65
 73
4
 40
101.5999999999999943
 49
63.5
 74
0
 49
-12.6999999999999993
 74
0
 49
12.6999999999999993
 74
0
 49
-12.6999999999999993
 74
0
  0
LTYPE
  5
40
100
AcDbSymbolTableRecord
100
AcDbLinetypeTableRecord
  2
BORDER
 70
0
  3
Border __ __ . __ __ . __ __ . __ __ . __ __ .
 72
65
 73
6
 40
44.4500000000000028
 49
12.6999999999999993
 74
0
 49
-6.3499999999999996
 74
0
 49
12.6999999999999993
 74
0
 49
-6.3499999999999996
 74
0
 49
0.0
 74
0
 49
-6.3499999999999996
 74
0
  0
LTYPE
  5
41
100
AcDbSymbolTableRecord
100
AcDbLinetypeTableRecord
  2
BORDER2
 70
0
  3
Border (.5x) __.__.__.__.__.__.__.__.__.__.__.
 72
65
 73
6
 40
22.2250000000000014
 49
6.3499999999999996
 74
0
 49
-3.1749999999999998
 74
0
 49
6.3499999999999996
 74
0
 49
-3.1749999999999998
 74
0
 49
0.0
 74
0
 49
-3.1749999999999998
 74
0
  0
LTYPE
  5
42
100
AcDbSymbolTableRecord
100
AcDbLinetypeTableRecord
  2
BORDERX2
 70
0
  3
Border (2x) ____  ____  .  ____  ____  .  ___
 72
65
 73
6
 40
88.9000000000000057
 49
25.3999999999999986
 74
0
 49
-12.6999999999999993
 74
0
 49
25.3999999999999986
 74
0
 49
-12.6999999999999993
 74
0
 49
0.0
 74
0
 49
-12.6999999999999993
 74
0
  0
ENDTAB
  0
TABLE
  2
LAYER
  5
2
100
AcDbSymbolTable
 70
6
  0
LAYER
  5
10
100
AcDbSymbolTableRecord
100
AcDbLayerTableRecord
  2
0
 70
0
 62
7
  6
CONTINUOUS
370
0
390
F
  0
LAYER
  5
43
100
AcDbSymbolTableRecord
100
AcDbLayerTableRecord
  2
uv
 70
0
 62
5
  6
CONTINUOUS
370
0
390
F
  0
LAYER
  5
44
100
AcDbSymbolTableRecord
100
AcDbLayerTableRecord
  2
xy
 70
0
 62
1
  6
CONTINUOUS
370
0
390
F
  0
LAYER
  5
45
100
AcDbSymbolTableRecord
100
AcDbLayerTableRecord
  2
sync
 70
0
 62
2
  6
CONTINUOUS
370
0
390
F
  0
LAYER
  5
46
100
AcDbSymbolTableRecord
100
AcDbLayerTableRecord
  2
start
 70
0
 62
3
  6
CONTINUOUS
370
0
390
F
  0
LAYER
  5
47
100
AcDbSymbolTableRecord
100
AcDbLayerTableRecord
  2
xyuv
 70
0
 62
6
  6
CONTINUOUS
370
0
390
F
  0
ENDTAB
  0
TABLE
  2
STYLE
  5
3
100
AcDbSymbolTable
 70
1
  0
STYLE
  5
11
100
AcDbSymbolTableRecord
100
AcDbTextStyleTableRecord
  2
Standard
 70
0
 40
0.0
 41
0.75
 50
0.0
 71
0
 42
2.5
  3
txt
  4

  0
ENDTAB
  0
TABLE
  2
VIEW
  5
6
100
AcDbSymbolTable
 70
0
  0
ENDTAB
  0
TABLE
  2
UCS
  5
7
100
AcDbSymbolTable
 70
0
  0
ENDTAB
  0
TABLE
  2
APPID
  5
9
100
AcDbSymbolTable
 70
1
  0
APPID
  5
12
100
AcDbSymbolTableRecord
100
AcDbRegAppTableRecord
  2
ACAD
 70
0
  0
ENDTAB
  0
TABLE
  2
DIMSTYLE
  5
A
100
AcDbSymbolTable
 70
1
100
AcDbDimStyleTable
 71
0
  0
DIMSTYLE
105
27
100
AcDbSymbolTableRecord
100
AcDbDimStyleTableRecord
  2
Standard
 41
2.5
 42
0.625
 43
3.75
 44
1.25
 70
0
 73
0
 74
0
 77
1
 78
8
140
2.5
141
2.5
143
0.03937007874016
147
0.625
171
3
172
1
271
2
272
2
274
3
278
44
283
0
284
8
340
11
  0
ENDTAB
  0
TABLE
  2
BLOCK_RECORD
  5
1
100
AcDbSymbolTable
 70
1
  0
BLOCK_RECORD
  5
1F
100
AcDbSymbolTableRecord
100
AcDbBlockTableRecord
  2
*Model_Space
340
22
  0
BLOCK_RECORD
  5
1B
100
AcDbSymbolTableRecord
100
AcDbBlockTableRecord
  2
*Paper_Space
340
1E
  0
BLOCK_RECORD
  5
23
100
AcDbSymbolTableRecord
100
AcDbBlockTableRecord
  2
*Paper_Space0
340
26
  0
ENDTAB
  0
ENDSEC
  0
SECTION
  2
BLOCKS
  0
BLOCK
  5
20
100
AcDbEntity
  8
0
100
AcDbBlockBegin
  2
*Model_Space
 70
0
 10
0.0
 20
0.0
 30
0.0
  3
*Model_Space
  1

  0
ENDBLK
  5
21
100
AcDbEntity
  8
0
100
AcDbBlockEnd
  0
BLOCK
  5
1C
100
AcDbEntity
 67
1
  8
0
100
AcDbBlockBegin
  2
*Paper_Space
 70
0
 10
0.0
 20
0.0
 30
0.0
  3
*Paper_Space
  1

  0
ENDBLK
  5
1D
100
AcDbEntity
 67
1
  8
0
100
AcDbBlockEnd
  0
BLOCK
  5
24
100
AcDbEntity
  8
0
100
AcDbBlockBegin
  2
*Paper_Space0
 70
0
 10
0.0
 20
0.0
 30
0.0
  3
*Paper_Space0
  1

  0
ENDBLK
  5
25
100
AcDbEntity
  8
0
100
AcDbBlockEnd
  0
ENDSEC
  0
SECTION
  2
ENTITIES
  0
LINE
  5
48
100
AcDbEntity
100
AcDbLine
  8
xyuv
 62
7
370
-1
  6
ByLayer
 10
198.5396000000000072
 20
82.0424000000000007
 30
0.0
 11
191.1273999999999944
 21
83.1587999999999994
 31
0.0
  0
LINE
  5
49
100
AcDbEntity
100
AcDbLine
  8
xyuv
 62
7
370
-1
  6
ByLayer
 10
191.1273999999999944
 20
83.1587999999999994
 30
0.0
 11
182.4788000000000068
 21
84.3636000000000053
 31
0.0
  0
LINE
  5
4A
100
AcDbEntity
100
AcDbLine
  8
xyuv
 62
7
370
-1
  6
ByLayer
 10
182.4788000000000068
 20
84.3636000000000053
 30
0.0
 11
173.5415999999999883
 21
85.5263999999999953
 31
0.0
  0
LINE
  5
4B
100
AcDbEntity
100
AcDbLine
  8
xyuv
 62
7
370
-1
  6
ByLayer
 10
173.5415999999999883
 20
85.5263999999999953
 30
0.0
 11
164.5495999999999981
 21
86.6189999999999998
 31
0.0
  0
LINE
  5
4C
100
AcDbEntity
100
AcDbLine
  8
xyuv
 62
7
370
-1
  6
ByLayer
 10
164.5495999999999981
 20
86.6189999999999998
 30
0.0
 11
155.5657999999999959
 21
87.6337999999999937
 31
0.0
  0
LINE
  5
4D
100
AcDbEntity
100
AcDbLine
  8
xyuv
 62
7
370
-1
  6
ByLayer
 10
155.5657999999999959
 20
87.6337999999999937
 30
0.0
 11
146.6302000000000021
 21
88.5649999999999977
 31
0.0
  0
LINE
  5
4E
100
AcDbEntity
100
AcDbLine
  8
xyuv
 62
7
370
-1
  6
ByLayer
 10
146.6302000000000021
 20
88.5649999999999977
 30
0.0
 11
137.7728000000000179
 21
89.4077999999999946
 31
0.0
  0
LINE
  5
4F
100
AcDbEntity
100
AcDbLine
  8
xyuv
 62
7
370
-1
  6
ByLayer
 10
137.7728000000000179
 20
89.4077999999999946
 30
0.0
 11
129.030399999999986
 21
90.1555999999999926
 31
0.0
  0
LINE
  5
50
100
AcDbEntity
100
AcDbLine
  8
xyuv
 62
7
370
-1
  6
ByLayer
 10
129.030399999999986
 20
90.1555999999999926
 30
0.0
 11
120.3937999999999988
 21
90.8059999999999974
 31
0.0
  0
LINE
  5
51
100
AcDbEntity
100
AcDbLine
  8
xyuv
 62
7
370
-1
  6
ByLayer
 10
120.3937999999999988
 20
90.8059999999999974
 30
0.0
 11
111.892799999999994
 21
91.355000000000004
 31
0.0
  0
LINE
  5
52
100
AcDbEntity
100
AcDbLine
  8
xyuv
 62
7
370
-1
  6
ByLayer
 10
111.892799999999994
 20
91.355000000000004
 30
0.0
 11
103.5739999999999981
 21
91.7956000000000074
 31
0.0
  0
LINE
  5
53
100
AcDbEntity
100
AcDbLine
  8
xyuv
 62
7
370
-1
  6
ByLayer
 10
103.5739999999999981
 20
91.7956000000000074
 30
0.0
 11
95.4278000000000048
 21
92.125
 31
0.0
  0
LINE
  5
54
100
AcDbEntity
100
AcDbLine
  8
xyuv
 62
7
370
-1
  6
ByLayer
 10
95.4278000000000048
 20
92.125
 30
0.0
 11
87.4989999999999952
 21
92.3389999999999986
 31
0.0
  0
LINE
  5
55
100
AcDbEntity
100
AcDbLine
  8
xyuv
 62
7
370
-1
  6
ByLayer
 10
87.4989999999999952
 20
92.3389999999999986
 30
0.0
 11
79.8115999999999985
 21
92.4339999999999975
 31
0.0
  0
LINE
  5
56
100
AcDbEntity
100
AcDbLine
  8
xyuv
 62
7
370
-1
  6
ByLayer
 10
79.8115999999999985
 20
92.4339999999999975
 30
0.0
 11
72.3866000000000014
 21
92.4077999999999946
 31
0.0
  0
LINE
  5
57
100
AcDbEntity
100
AcDbLine
  8
xyuv
 62
7
370
-1
  6
ByLayer
 10
72.3866000000000014
 20
92.4077999999999946
 30
0.0
 11
65.2758000000000038
 21
92.2600000000000051
 31
0.0
  0
LINE
  5
58
100
AcDbEntity
100
AcDbLine
  8
xyuv
 62
7
370
-1
  6
ByLayer
 10
65.2758000000000038
 20
92.2600000000000051
 30
0.0
 11
58.527000000000001
 21
91.9916000000000054
 31
0.0
  0
LINE
  5
59
100
AcDbEntity
100
AcDbLine
  8
xyuv
 62
7
370
-1
  6
ByLayer
 10
58.527000000000001
 20
91.9916000000000054
 30
0.0
 11
52.166400000000003
 21
91.6064000000000078
 31
0.0
  0
LINE
  5
5A
100
AcDbEntity
100
AcDbLine
  8
xyuv
 62
7
370
-1
  6
ByLayer
 10
52.166400000000003
 20
91.6064000000000078
 30
0.0
 11
46.2394000000000034
 21
91.1122000000000014
 31
0.0
  0
LINE
  5
5B
100
AcDbEntity
100
AcDbLine
  8
xyuv
 62
7
370
-1
  6
ByLayer
 10
46.2394000000000034
 20
91.1122000000000014
 30
0.0
 11
40.7852000000000032
 21
90.5203999999999951
 31
0.0
  0
LINE
  5
5C
100
AcDbEntity
100
AcDbLine
  8
xyuv
 62
7
370
-1
  6
ByLayer
 10
40.7852000000000032
 20
90.5203999999999951
 30
0.0
 11
35.8302000000000049
 21
89.8461999999999961
 31
0.0
  0
LINE
  5
5D
100
AcDbEntity
100
AcDbLine
  8
xyuv
 62
7
370
-1
  6
ByLayer
 10
35.8302000000000049
 20
89.8461999999999961
 30
0.0
 11
31.4131999999999998
 21
89.1119999999999948
 31
0.0
  0
LINE
  5
5E
100
AcDbEntity
100
AcDbLine
  8
xyuv
 62
7
370
-1
  6
ByLayer
 10
31.4131999999999998
 20
89.1119999999999948
 30
0.0
 11
27.5746000000000002
 21
88.3475999999999999
 31
0.0
  0
LINE
  5
5F
100
AcDbEntity
100
AcDbLine
  8
xyuv
 62
7
370
-1
  6
ByLayer
 10
27.5746000000000002
 20
88.3475999999999999
 30
0.0
 11
24.3219999999999992
 21
87.583200000000005
 31
0.0
  0
LINE
  5
60
100
AcDbEntity
100
AcDbLine
  8
xyuv
 62
7
370
-1
  6
ByLayer
 10
24.3219999999999992
 20
87.583200000000005
 30
0.0
 11
21.6469999999999985
 21
86.8520000000000039
 31
0.0
  0
LINE
  5
61
100
AcDbEntity
100
AcDbLine
  8
xyuv
 62
7
370
-1
  6
ByLayer
 10
21.6469999999999985
 20
86.8520000000000039
 30
0.0
 11
19.5229999999999997
 21
86.1864000000000061
 31
0.0
  0
LINE
  5
62
100
AcDbEntity
100
AcDbLine
  8
xyuv
 62
7
370
-1
  6
ByLayer
 10
19.5229999999999997
 20
86.1864000000000061
 30
0.0
 11
17.8787999999999982
 21
85.6039999999999992
 31
0.0
  0
LINE
  5
63
100
AcDbEntity
100
AcDbLine
  8
xyuv
 62
7
370
-1
  6
ByLayer
 10
17.8787999999999982
 20
85.6039999999999992
 30
0.0
 11
16.6173999999999999
 21
85.1066000000000003
 31
0.0
  0
LINE
  5
64
100
AcDbEntity
100
AcDbLine
  8
xyuv
 62
7
370
-1
  6
ByLayer
 10
16.6173999999999999
 20
85.1066000000000003
 30
0.0
 11
15.6440000000000001
 21
84.6854000000000013
 31
0.0
  0
LINE
  5
65
100
AcDbEntity
100
AcDbLine
  8
xyuv
 62
7
370
-1
  6
ByLayer
 10
15.6440000000000001
 20
84.6854000000000013
 30
0.0
 11
14.8808000000000007
 21
84.3273999999999972
 31
0.0
  0
LINE
  5
66
100
AcDbEntity
100
AcDbLine
  8
xyuv
 62
7
370
-1
  6
ByLayer
 10
14.8808000000000007
 20
84.3273999999999972
 30
0.0
 11
14.2698
 21
84.019599999999997
 31
0.0
  0
LINE
  5
67
100
AcDbEntity
100
AcDbLine
  8
xyuv
 62
7
370
-1
  6
ByLayer
 10
14.2698
 20
84.019599999999997
 30
0.0
 11
13.7698
 21
83.7511999999999972
 31
0.0
  0
LINE
  5
68
100
AcDbEntity
100
AcDbLine
  8
xyuv
 62
7
370
-1
  6
ByLayer
 10
13.7698
 20
83.7511999999999972
 30
0.0
 11
13.3525999999999989
 21
83.5134000000000043
 31
0.0
  0
LINE
  5
69
100
AcDbEntity
100
AcDbLine
  8
xyuv
 62
7
370
-1
  6
ByLayer
 10
13.3525999999999989
 20
83.5134000000000043
 30
0.0
 11
12.9982000000000006
 21
83.2999999999999972
 31
0.0
  0
LINE
  5
6A
100
AcDbEntity
100
AcDbLine
  8
xyuv
 62
7
370
-1
  6
ByLayer
 10
12.9982000000000006
 20
83.2999999999999972
 30
0.0
 11
12.6926000000000005
 21
83.1059999999999945
 31
0.0
  0
LINE
  5
6B
100
AcDbEntity
100
AcDbLine
  8
xyuv
 62
7
370
-1
  6
ByLayer
 10
12.6926000000000005
 20
83.1059999999999945
 30
0.0
 11
12.4258000000000006
 21
82.9279999999999973
 31
0.0
  0
LINE
  5
6C
100
AcDbEntity
100
AcDbLine
  8
xyuv
 62
7
370
-1
  6
ByLayer
 10
12.4258000000000006
 20
82.9279999999999973
 30
0.0
 11
12.1905999999999999
 21
82.7634000000000043
 31
0.0
  0
LINE
  5
6D
100
AcDbEntity
100
AcDbLine
  8
xyuv
 62
7
370
-1
  6
ByLayer
 10
12.1905999999999999
 20
82.7634000000000043
 30
0.0
 11
11.9811999999999994
 21
82.609800000000007
 31
0.0
  0
LINE
  5
6E
100
AcDbEntity
100
AcDbLine
  8
xyuv
 62
7
370
-1
  6
ByLayer
 10
11.9811999999999994
 20
82.609800000000007
 30
0.0
 11
11.7934000000000001
 21
82.4658000000000015
 31
0.0
  0
LINE
  5
6F
100
AcDbEntity
100
AcDbLine
  8
xyuv
 62
7
370
-1
  6
ByLayer
 10
11.7934000000000001
 20
82.4658000000000015
 30
0.0
 11
11.6237999999999992
 21
82.3299999999999983
 31
0.0
  0
LINE
  5
70
100
AcDbEntity
100
AcDbLine
  8
xyuv
 62
7
370
-1
  6
ByLayer
 10
11.6237999999999992
 20
82.3299999999999983
 30
0.0
 11
11.4700000000000006
 21
82.2015999999999991
 31
0.0
  0
LINE
  5
71
100
AcDbEntity
100
AcDbLine
  8
xyuv
 62
7
370
-1
  6
ByLayer
 10
11.4700000000000006
 20
82.2015999999999991
 30
0.0
 11
11.3295999999999992
 21
82.0792000000000002
 31
0.0
  0
LINE
  5
72
100
AcDbEntity
100
AcDbLine
  8
xyuv
 62
7
370
-1
  6
ByLayer
 10
11.3295999999999992
 20
82.0792000000000002
 30
0.0
 11
11.2012
 21
81.9625999999999948
 31
0.0
  0
LINE
  5
73
100
AcDbEntity
100
AcDbLine
  8
xyuv
 62
7
370
-1
  6
ByLayer
 10
11.2012
 20
81.9625999999999948
 30
0.0
 11
11.0831999999999997
 21
81.8509999999999991
 31
0.0
  0
LINE
  5
74
100
AcDbEntity
100
AcDbLine
  8
xyuv
 62
7
370
-1
  6
ByLayer
 10
11.0831999999999997
 20
81.8509999999999991
 30
0.0
 11
10.9743999999999993
 21
81.7437999999999931
 31
0.0
  0
LINE
  5
75
100
AcDbEntity
100
AcDbLine
  8
xyuv
 62
7
370
-1
  6
ByLayer
 10
10.9743999999999993
 20
81.7437999999999931
 30
0.0
 11
10.8742000000000001
 21
81.6406000000000063
 31
0.0
  0
LINE
  5
76
100
AcDbEntity
100
AcDbLine
  8
xyuv
 62
7
370
-1
  6
ByLayer
 10
10.8742000000000001
 20
81.6406000000000063
 30
0.0
 11
10.7813999999999997
 21
81.5409999999999968
 31
0.0
  0
LINE
  5
77
100
AcDbEntity
100
AcDbLine
  8
xyuv
 62
7
370
-1
  6
ByLayer
 10
10.7813999999999997
 20
81.5409999999999968
 30
0.0
 11
10.6953999999999994
 21
81.4444000000000017
 31
0.0
  0
LINE
  5
78
100
AcDbEntity
100
AcDbLine
  8
xyuv
 62
7
370
-1
  6
ByLayer
 10
10.6953999999999994
 20
81.4444000000000017
 30
0.0
 11
10.6159999999999997
 21
81.3508000000000067
 31
0.0
  0
LINE
  5
79
100
AcDbEntity
100
AcDbLine
  8
xyuv
 62
7
370
-1
  6
ByLayer
 10
10.6159999999999997
 20
81.3508000000000067
 30
0.0
 11
10.5421999999999993
 21
81.2597999999999985
 31
0.0
  0
LINE
  5
7A
100
AcDbEntity
100
AcDbLine
  8
xyuv
 62
7
370
-1
  6
ByLayer
 10
10.5421999999999993
 20
81.2597999999999985
 30
0.0
 11
10.4741999999999997
 21
81.1710000000000065
 31
0.0
  0
LINE
  5
7B
100
AcDbEntity
100
AcDbLine
  8
xyuv
 62
7
370
-1
  6
ByLayer
 10
10.4741999999999997
 20
81.1710000000000065
 30
0.0
 11
10.4114000000000004
 21
81.0840000000000032
 31
0.0
  0
LINE
  5
7C
100
AcDbEntity
100
AcDbLine
  8
xyuv
 62
7
370
-1
  6
ByLayer
 10
10.4114000000000004
 20
81.0840000000000032
 30
0.0
 11
10.3534000000000006
 21
80.9989999999999952
 31
0.0
  0
LINE
  5
7D
100
AcDbEntity
100
AcDbLine
  8
xyuv
 62
7
370
-1
  6
ByLayer
 10
10.3534000000000006
 20
80.9989999999999952
 30
0.0
 11
10.3002000000000002
 21
80.9155999999999977
 31
0.0
  0
LINE
  5
7E
100
AcDbEntity
100
AcDbLine
  8
xyuv
 62
7
370
-1
  6
ByLayer
 10
10.3002000000000002
 20
80.9155999999999977
 30
0.0
 11
10.2517999999999994
 21
80.8336000000000041
 31
0.0
  0
LINE
  5
7F
100
AcDbEntity
100
AcDbLine
  8
xyuv
 62
7
370
-1
  6
ByLayer
 10
10.2517999999999994
 20
80.8336000000000041
 30
0.0
 11
10.2078000000000007
 21
80.7527999999999935
 31
0.0
  0
LINE
  5
80
100
AcDbEntity
100
AcDbLine
  8
xyuv
 62
7
370
-1
  6
ByLayer
 10
10.2078000000000007
 20
80.7527999999999935
 30
0.0
 11
10.1679999999999993
 21
80.6731999999999942
 31
0.0
  0
LINE
  5
81
100
AcDbEntity
100
AcDbLine
  8
xyuv
 62
7
370
-1
  6
ByLayer
 10
10.1679999999999993
 20
80.6731999999999942
 30
0.0
 11
10.1327999999999996
 21
80.5948000000000064
 31
0.0
  0
LINE
  5
82
100
AcDbEntity
100
AcDbLine
  8
xyuv
 62
7
370
-1
  6
ByLayer
 10
10.1327999999999996
 20
80.5948000000000064
 30
0.0
 11
10.1018000000000008
 21
80.517399999999995
 31
0.0
  0
LINE
  5
83
100
AcDbEntity
100
AcDbLine
  8
xyuv
 62
7
370
-1
  6
ByLayer
 10
10.1018000000000008
 20
80.517399999999995
 30
0.0
 11
10.0747999999999998
 21
80.4407999999999959
 31
0.0
  0
LINE
  5
84
100
AcDbEntity
100
AcDbLine
  8
xyuv
 62
7
370
-1
  6
ByLayer
 10
10.0747999999999998
 20
80.4407999999999959
 30
0.0
 11
10.0521999999999991
 21
80.365399999999994
 31
0.0
  0
LINE
  5
85
100
AcDbEntity
100
AcDbLine
  8
xyuv
 62
7
370
-1
  6
ByLayer
 10
10.0521999999999991
 20
80.365399999999994
 30
0.0
 11
10.0337999999999994
 21
80.2909999999999968
 31
0.0
  0
LINE
  5
86
100
AcDbEntity
100
AcDbLine
  8
xyuv
 62
7
370
-1
  6
ByLayer
 10
10.0337999999999994
 20
80.2909999999999968
 30
0.0
 11
10.0193999999999992
 21
80.2176000000000045
 31
0.0
  0
LINE
  5
87
100
AcDbEntity
100
AcDbLine
  8
xyuv
 62
7
370
-1
  6
ByLayer
 10
10.0193999999999992
 20
80.2176000000000045
 30
0.0
 11
10.0090000000000003
 21
80.1453999999999951
 31
0.0
  0
LINE
  5
88
100
AcDbEntity
100
AcDbLine
  8
xyuv
 62
7
370
-1
  6
ByLayer
 10
10.1674000000000007
 20
79.3584000000000032
 30
0.0
 11
10.2097999999999995
 21
79.2861999999999938
 31
0.0
  0
LINE
  5
89
100
AcDbEntity
100
AcDbLine
  8
xyuv
 62
7
370
-1
  6
ByLayer
 10
10.2097999999999995
 20
79.2861999999999938
 30
0.0
 11
10.2571999999999992
 21
79.2142000000000053
 31
0.0
  0
LINE
  5
8A
100
AcDbEntity
100
AcDbLine
  8
xyuv
 62
7
370
-1
  6
ByLayer
 10
10.2571999999999992
 20
79.2142000000000053
 30
0.0
 11
10.3095999999999997
 21
79.1426000000000016
 31
0.0
  0
LINE
  5
8B
100
AcDbEntity
100
AcDbLine
  8
xyuv
 62
7
370
-1
  6
ByLayer
 10
10.3095999999999997
 20
79.1426000000000016
 30
0.0
 11
10.3672000000000004
 21
79.071399999999997
 31
0.0
  0
LINE
  5
8C
100
AcDbEntity
100
AcDbLine
  8
xyuv
 62
7
370
-1
  6
ByLayer
 10
10.3672000000000004
 20
79.071399999999997
 30
0.0
 11
10.4299999999999997
 21
79.0006000000000057
 31
0.0
  0
LINE
  5
8D
100
AcDbEntity
100
AcDbLine
  8
xyuv
 62
7
370
-1
  6
ByLayer
 10
10.4299999999999997
 20
79.0006000000000057
 30
0.0
 11
10.4979999999999993
 21
78.9300000000000068
 31
0.0
  0
LINE
  5
8E
100
AcDbEntity
100
AcDbLine
  8
xyuv
 62
7
370
-1
  6
ByLayer
 10
10.4979999999999993
 20
78.9300000000000068
 30
0.0
 11
10.5716000000000001
 21
78.8599999999999994
 31
0.0
  0
LINE
  5
8F
100
AcDbEntity
100
AcDbLine
  8
xyuv
 62
7
370
-1
  6
ByLayer
 10
10.5716000000000001
 20
78.8599999999999994
 30
0.0
 11
10.6506000000000007
 21
78.7900000000000063
 31
0.0
  0
LINE
  5
90
100
AcDbEntity
100
AcDbLine
  8
xyuv
 62
7
370
-1
  6
ByLayer
 10
10.6506000000000007
 20
78.7900000000000063
 30
0.0
 11
10.7355999999999998
 21
78.7202000000000055
 31
0.0
  0
LINE
  5
91
100
AcDbEntity
100
AcDbLine
  8
xyuv
 62
7
370
-1
  6
ByLayer
 10
10.7355999999999998
 20
78.7202000000000055
 30
0.0
 11
10.8265999999999991
 21
78.6504000000000048
 31
0.0
  0
LINE
  5
92
100
AcDbEntity
100
AcDbLine
  8
xyuv
 62
7
370
-1
  6
ByLayer
 10
10.8265999999999991
 20
78.6504000000000048
 30
0.0
 11
10.9242000000000008
 21
78.5802000000000049
 31
0.0
  0
LINE
  5
93
100
AcDbEntity
100
AcDbLine
  8
xyuv
 62
7
370
-1
  6
ByLayer
 10
10.9242000000000008
 20
78.5802000000000049
 30
0.0
 11
11.0289999999999999
 21
78.5097999999999985
 31
0.0
  0
LINE
  5
94
100
AcDbEntity
100
AcDbLine
  8
xyuv
 62
7
370
-1
  6
ByLayer
 10
11.0289999999999999
 20
78.5097999999999985
 30
0.0
 11
11.1411999999999995
 21
78.4385999999999939
 31
0.0
  0
LINE
  5
95
100
AcDbEntity
100
AcDbLine
  8
xyuv
 62
7
370
-1
  6
ByLayer
 10
11.1411999999999995
 20
78.4385999999999939
 30
0.0
 11
11.2615999999999996
 21
78.3667999999999978
 31
0.0
  0
LINE
  5
96
100
AcDbEntity
100
AcDbLine
  8
xyuv
 62
7
370
-1
  6
ByLayer
 10
11.2615999999999996
 20
78.3667999999999978
 30
0.0
 11
11.391
 21
78.2938000000000045
 31
0.0
  0
LINE
  5
97
100
AcDbEntity
100
AcDbLine
  8
xyuv
 62
7
370
-1
  6
ByLayer
 10
11.391
 20
78.2938000000000045
 30
0.0
 11
11.5305999999999997
 21
78.2193999999999932
 31
0.0
  0
LINE
  5
98
100
AcDbEntity
100
AcDbLine
  8
xyuv
 62
7
370
-1
  6
ByLayer
 10
11.5305999999999997
 20
78.2193999999999932
 30
0.0
 11
11.6814
 21
78.1433999999999997
 31
0.0
  0
LINE
  5
99
100
AcDbEntity
100
AcDbLine
  8
xyuv
 62
7
370
-1
  6
ByLayer
 10
11.6814
 20
78.1433999999999997
 30
0.0
 11
11.8452000000000002
 21
78.0653999999999968
 31
0.0
  0
LINE
  5
9A
100
AcDbEntity
100
AcDbLine
  8
xyuv
 62
7
370
-1
  6
ByLayer
 10
11.8452000000000002
 20
78.0653999999999968
 30
0.0
 11
12.0237999999999996
 21
77.984800000000007
 31
0.0
  0
LINE
  5
9B
100
AcDbEntity
100
AcDbLine
  8
xyuv
 62
7
370
-1
  6
ByLayer
 10
12.0237999999999996
 20
77.984800000000007
 30
0.0
 11
12.2195999999999998
 21
77.9012000000000029
 31
0.0
  0
LINE
  5
9C
100
AcDbEntity
100
AcDbLine
  8
xyuv
 62
7
370
-1
  6
ByLayer
 10
12.2195999999999998
 20
77.9012000000000029
 30
0.0
 11
12.4356000000000009
 21
77.8138000000000005
 31
0.0
  0
LINE
  5
9D
100
AcDbEntity
100
AcDbLine
  8
xyuv
 62
7
370
-1
  6
ByLayer
 10
12.4356000000000009
 20
77.8138000000000005
 30
0.0
 11
12.6755999999999993
 21
77.7223999999999933
 31
0.0
  0
LINE
  5
9E
100
AcDbEntity
100
AcDbLine
  8
xyuv
 62
7
370
-1
  6
ByLayer
 10
12.6755999999999993
 20
77.7223999999999933
 30
0.0
 11
12.9453999999999994
 21
77.6253999999999991
 31
0.0
  0
LINE
  5
9F
100
AcDbEntity
100
AcDbLine
  8
xyuv
 62
7
370
-1
  6
ByLayer
 10
12.9453999999999994
 20
77.6253999999999991
 30
0.0
 11
13.2517999999999994
 21
77.5217999999999989
 31
0.0
  0
LINE
  5
A0
100
AcDbEntity
100
AcDbLine
  8
xyuv
 62
7
370
-1
  6
ByLayer
 10
13.2517999999999994
 20
77.5217999999999989
 30
0.0
 11
13.6045999999999996
 21
77.4099999999999966
 31
0.0
  0
LINE
  5
A1
100
AcDbEntity
100
AcDbLine
  8
xyuv
 62
7
370
-1
  6
ByLayer
 10
13.6045999999999996
 20
77.4099999999999966
 30
0.0
 11
14.0185999999999993
 21
77.2874000000000052
 31
0.0
  0
LINE
  5
A2
100
AcDbEntity
100
AcDbLine
  8
xyuv
 62
7
370
-1
  6
ByLayer
 10
14.0185999999999993
 20
77.2874000000000052
 30
0.0
 11
14.5150000000000006
 21
77.1505999999999972
 31
0.0
  0
LINE
  5
A3
100
AcDbEntity
100
AcDbLine
  8
xyuv
 62
7
370
-1
  6
ByLayer
 10
14.5150000000000006
 20
77.1505999999999972
 30
0.0
 11
15.1272000000000002
 21
76.9954000000000036
 31
0.0
  0
LINE
  5
A4
100
AcDbEntity
100
AcDbLine
  8
xyuv
 62
7
370
-1
  6
ByLayer
 10
15.1272000000000002
 20
76.9954000000000036
 30
0.0
 11
15.9096000000000011
 21
76.8145999999999987
 31
0.0
  0
LINE
  5
A5
100
AcDbEntity
100
AcDbLine
  8
xyuv
 62
7
370
-1
  6
ByLayer
 10
15.9096000000000011
 20
76.8145999999999987
 30
0.0
 11
16.9559999999999995
 21
76.598399999999998
 31
0.0
  0
LINE
  5
A6
100
AcDbEntity
100
AcDbLine
  8
xyuv
 62
7
370
-1
  6
ByLayer
 10
16.9559999999999995
 20
76.598399999999998
 30
0.0
 11
18.4309999999999974
 21
76.3333999999999975
 31
0.0
  0
LINE
  5
A7
100
AcDbEntity
100
AcDbLine
  8
xyuv
 62
7
370
-1
  6
ByLayer
 10
18.4309999999999974
 20
76.3333999999999975
 30
0.0
 11
20.6142000000000003
 21
76.0057999999999936
 31
0.0
  0
LINE
  5
A8
100
AcDbEntity
100
AcDbLine
  8
xyuv
 62
7
370
-1
  6
ByLayer
 10
20.6142000000000003
 20
76.0057999999999936
 30
0.0
 11
23.8421999999999983
 21
75.620199999999997
 31
0.0
  0
LINE
  5
A9
100
AcDbEntity
100
AcDbLine
  8
xyuv
 62
7
370
-1
  6
ByLayer
 10
23.8421999999999983
 20
75.620199999999997
 30
0.0
 11
28.2643999999999984
 21
75.2253999999999934
 31
0.0
  0
LINE
  5
AA
100
AcDbEntity
100
AcDbLine
  8
xyuv
 62
7
370
-1
  6
ByLayer
 10
28.2643999999999984
 20
75.2253999999999934
 30
0.0
 11
33.8926000000000016
 21
74.8738000000000028
 31
0.0
  0
LINE
  5
AB
100
AcDbEntity
100
AcDbLine
  8
xyuv
 62
7
370
-1
  6
ByLayer
 10
33.8926000000000016
 20
74.8738000000000028
 30
0.0
 11
40.6119999999999948
 21
74.6006
 31
0.0
  0
LINE
  5
AC
100
AcDbEntity
100
AcDbLine
  8
xyuv
 62
7
370
-1
  6
ByLayer
 10
40.6119999999999948
 20
74.6006
 30
0.0
 11
48.2045999999999992
 21
74.4238
 31
0.0
  0
LINE
  5
AD
100
AcDbEntity
100
AcDbLine
  8
xyuv
 62
7
370
-1
  6
ByLayer
 10
48.2045999999999992
 20
74.4238
 30
0.0
 11
56.4799999999999969
 21
74.3448000000000064
 31
0.0
  0
LINE
  5
AE
100
AcDbEntity
100
AcDbLine
  8
xyuv
 62
7
370
-1
  6
ByLayer
 10
56.4799999999999969
 20
74.3448000000000064
 30
0.0
 11
65.2740000000000009
 21
74.3562000000000012
 31
0.0
  0
LINE
  5
AF
100
AcDbEntity
100
AcDbLine
  8
xyuv
 62
7
370
-1
  6
ByLayer
 10
65.2740000000000009
 20
74.3562000000000012
 30
0.0
 11
74.4026000000000067
 21
74.4480000000000075
 31
0.0
  0
LINE
  5
B0
100
AcDbEntity
100
AcDbLine
  8
xyuv
 62
7
370
-1
  6
ByLayer
 10
74.4026000000000067
 20
74.4480000000000075
 30
0.0
 11
83.7510000000000048
 21
74.6115999999999957
 31
0.0
  0
LINE
  5
B1
100
AcDbEntity
100
AcDbLine
  8
xyuv
 62
7
370
-1
  6
ByLayer
 10
83.7510000000000048
 20
74.6115999999999957
 30
0.0
 11
93.2215999999999951
 21
74.8397999999999968
 31
0.0
  0
LINE
  5
B2
100
AcDbEntity
100
AcDbLine
  8
xyuv
 62
7
370
-1
  6
ByLayer
 10
93.2215999999999951
 20
74.8397999999999968
 30
0.0
 11
102.6697999999999951
 21
75.1268000000000029
 31
0.0
  0
LINE
  5
B3
100
AcDbEntity
100
AcDbLine
  8
xyuv
 62
7
370
-1
  6
ByLayer
 10
102.6697999999999951
 20
75.1268000000000029
 30
0.0
 11
111.848399999999998
 21
75.4689999999999941
 31
0.0
  0
LINE
  5
B4
100
AcDbEntity
100
AcDbLine
  8
xyuv
 62
7
370
-1
  6
ByLayer
 10
111.848399999999998
 20
75.4689999999999941
 30
0.0
 11
120.5507999999999953
 21
75.8713999999999942
 31
0.0
  0
LINE
  5
B5
100
AcDbEntity
100
AcDbLine
  8
xyuv
 62
7
370
-1
  6
ByLayer
 10
120.5507999999999953
 20
75.8713999999999942
 30
0.0
 11
129.1725999999999885
 21
76.3648000000000025
 31
0.0
  0
LINE
  5
B6
100
AcDbEntity
100
AcDbLine
  8
xyuv
 62
7
370
-1
  6
ByLayer
 10
129.1725999999999885
 20
76.3648000000000025
 30
0.0
 11
138.4906000000000006
 21
76.9842000000000013
 31
0.0
  0
LINE
  5
B7
100
AcDbEntity
100
AcDbLine
  8
xyuv
 62
7
370
-1
  6
ByLayer
 10
138.4906000000000006
 20
76.9842000000000013
 30
0.0
 11
148.7755999999999972
 21
77.7094000000000023
 31
0.0
  0
LINE
  5
B8
100
AcDbEntity
100
AcDbLine
  8
xyuv
 62
7
370
-1
  6
ByLayer
 10
148.7755999999999972
 20
77.7094000000000023
 30
0.0
 11
158.7794000000000096
 21
78.4008000000000038
 31
0.0
  0
LINE
  5
B9
100
AcDbEntity
100
AcDbLine
  8
xyuv
 62
7
370
-1
  6
ByLayer
 10
158.7794000000000096
 20
78.4008000000000038
 30
0.0
 11
168.1466000000000065
 21
78.9992000000000019
 31
0.0
  0
LINE
  5
BA
100
AcDbEntity
100
AcDbLine
  8
xyuv
 62
7
370
-1
  6
ByLayer
 10
168.1466000000000065
 20
78.9992000000000019
 30
0.0
 11
176.9801999999999964
 21
79.4917999999999978
 31
0.0
  0
LINE
  5
BB
100
AcDbEntity
100
AcDbLine
  8
xyuv
 62
7
370
-1
  6
ByLayer
 10
176.9801999999999964
 20
79.4917999999999978
 30
0.0
 11
185.2713999999999999
 21
79.8645999999999958
 31
0.0
  0
LINE
  5
BC
100
AcDbEntity
100
AcDbLine
  8
xyuv
 62
7
370
-1
  6
ByLayer
 10
185.2713999999999999
 20
79.8645999999999958
 30
0.0
 11
192.9331999999999994
 21
80.105400000000003
 31
0.0
  0
LINE
  5
BD
100
AcDbEntity
100
AcDbLine
  8
xyuv
 62
7
370
-1
  6
ByLayer
 10
192.9331999999999994
 20
80.105400000000003
 30
0.0
 11
199.7369999999999948
 21
80.2052000000000049
 31
0.0
  0
LINE
  5
BE
100
AcDbEntity
100
AcDbLine
  8
xyuv
 62
7
370
-1
  6
ByLayer
 10
199.7369999999999948
 20
80.2052000000000049
 30
0.0
 11
204.6200000000000045
 21
80.1869999999999976
 31
0.0
  0
LINE
  5
BF
100
AcDbEntity
100
AcDbLine
  8
xyuv
 62
7
370
-1
  6
ByLayer
 10
204.6200000000000045
 20
80.1869999999999976
 30
0.0
 11
207.1852000000000089
 21
80.1306000000000012
 31
0.0
  0
LINE
  5
C0
100
AcDbEntity
100
AcDbLine
  8
xyuv
 62
7
370
-1
  6
ByLayer
 10
207.1852000000000089
 20
80.1306000000000012
 30
0.0
 11
208.6077999999999975
 21
80.0768000000000058
 31
0.0
  0
LINE
  5
C1
100
AcDbEntity
100
AcDbLine
  8
xyuv
 62
7
370
-1
  6
ByLayer
 10
208.6077999999999975
 20
80.0768000000000058
 30
0.0
 11
209.5326000000000022
 21
80.0289999999999964
 31
0.0
  0
LINE
  5
C2
100
AcDbEntity
100
AcDbLine
  8
xyuv
 62
7
370
-1
  6
ByLayer
 10
209.5326000000000022
 20
80.0289999999999964
 30
0.0
 11
210.0
 21
80.0
 31
0.0
  0
LINE
  5
C3
100
AcDbEntity
100
AcDbLine
  8
xyuv
 62
7
370
-1
  6
ByLayer
 10
65.474493096020467
 20
87.2639494544596772
 30
0.0
 11
58.8292478747133813
 21
87.0007437385723819
 31
0.0
  0
LINE
  5
C4
100
AcDbEntity
100
AcDbLine
  8
xyuv
 62
7
370
-1
  6
ByLayer
 10
58.8292478747133813
 20
87.0007437385723819
 30
0.0
 11
52.5818639486983201
 21
86.6236909268820483
 31
0.0
  0
LINE
  5
C5
100
AcDbEntity
100
AcDbLine
  8
xyuv
 62
7
370
-1
  6
ByLayer
 10
52.5818639486983201
 20
86.6236909268820483
 30
0.0
 11
46.7787520818714455
 21
86.1413751859695367
 31
0.0
  0
LINE
  5
C6
100
AcDbEntity
100
AcDbLine
  8
xyuv
 62
7
370
-1
  6
ByLayer
 10
24.4352575414370889
 20
80.5849036923208786
 30
0.0
 11
28.5761479098321196
 21
80.2156718604015282
 31
0.0
  0
LINE
  5
C7
100
AcDbEntity
100
AcDbLine
  8
xyuv
 62
7
370
-1
  6
ByLayer
 10
40.7283976018485916
 20
79.5992449762194383
 30
0.0
 11
48.252329656867488
 21
79.4235721827954677
 31
0.0
  0
LINE
  5
C8
100
AcDbEntity
100
AcDbLine
  8
xyuv
 62
7
370
-1
  6
ByLayer
 10
56.4735183133839485
 20
79.3447957987720969
 30
0.0
 11
65.2237210095102142
 21
79.3559471959205496
 31
0.0
  0
LINE
  5
C9
100
AcDbEntity
100
AcDbLine
  8
xyuv
 62
7
370
-1
  6
ByLayer
 10
48.252329656867488
 20
79.4235721827954677
 30
0.0
 11
56.4735183133839485
 21
79.3447957987720969
 31
0.0
  0
LINE
  5
CA
100
AcDbEntity
100
AcDbLine
  8
xyuv
 62
7
370
-1
  6
ByLayer
 10
34.0957241371723825
 20
79.8696723547442673
 30
0.0
 11
40.7283976018485916
 21
79.5992449762194383
 31
0.0
  0
LINE
  5
CB
100
AcDbEntity
100
AcDbLine
  8
xyuv
 62
7
370
-1
  6
ByLayer
 10
28.5761479098321196
 20
80.2156718604015282
 30
0.0
 11
34.0957241371723825
 21
79.8696723547442673
 31
0.0
  0
LINE
  5
CC
100
AcDbEntity
100
AcDbLine
  8
xyuv
 62
7
370
-1
  6
ByLayer
 10
21.3561680661951812
 20
80.9504418868050095
 30
0.0
 11
24.4352575414370889
 21
80.5849036923208786
 31
0.0
  0
LINE
  5
CD
100
AcDbEntity
100
AcDbLine
  8
xyuv
 62
7
370
-1
  6
ByLayer
 10
23.1421604899636151
 20
82.0807847345511874
 30
0.0
 11
21.0181604899636163
 21
81.4151847345511896
 31
0.0
  0
LINE
  5
CE
100
AcDbEntity
100
AcDbLine
  8
xyuv
 62
7
370
-1
  6
ByLayer
 10
21.0181604899636163
 20
81.4151847345511896
 30
0.0
 11
21.3561680661951812
 21
80.9504418868050095
 31
0.0
  0
LINE
  5
CF
100
AcDbEntity
100
AcDbLine
  8
xyuv
 62
7
370
-1
  6
ByLayer
 10
25.6403634517645713
 20
82.7601389586019707
 30
0.0
 11
23.1421604899636151
 21
82.0807847345511874
 31
0.0
  0
LINE
  5
D0
100
AcDbEntity
100
AcDbLine
  8
xyuv
 62
7
370
-1
  6
ByLayer
 10
28.7184954418536584
 20
83.4802081708879768
 30
0.0
 11
25.6403634517645713
 21
82.7601389586019707
 31
0.0
  0
LINE
  5
D1
100
AcDbEntity
100
AcDbLine
  8
xyuv
 62
7
370
-1
  6
ByLayer
 10
32.3897022417483953
 20
84.208282698619314
 30
0.0
 11
28.7184954418536584
 21
83.4802081708879768
 31
0.0
  0
LINE
  5
D2
100
AcDbEntity
100
AcDbLine
  8
xyuv
 62
7
370
-1
  6
ByLayer
 10
36.6500580988918756
 20
84.9138747169634627
 30
0.0
 11
32.3897022417483953
 21
84.208282698619314
 31
0.0
  0
LINE
  5
D3
100
AcDbEntity
100
AcDbLine
  8
xyuv
 62
7
370
-1
  6
ByLayer
 10
41.4593114189508825
 20
85.5660510220978523
 30
0.0
 11
36.6500580988918756
 21
84.9138747169634627
 31
0.0
  0
LINE
  5
D4
100
AcDbEntity
100
AcDbLine
  8
xyuv
 62
7
370
-1
  6
ByLayer
 10
46.7787520818714455
 20
86.1413751859695367
 30
0.0
 11
41.4593114189508825
 21
85.5660510220978523
 31
0.0
  0
LINE
  5
D5
100
AcDbEntity
100
AcDbLine
  8
xyuv
 62
7
370
-1
  6
ByLayer
 10
95.2928980626954143
 20
87.1268201845760473
 30
0.0
 11
87.4372152959656432
 21
87.3393817495385321
 31
0.0
  0
LINE
  5
D6
100
AcDbEntity
100
AcDbLine
  8
xyuv
 62
7
370
-1
  6
ByLayer
 10
103.3719849295834621
 20
86.7996826756916278
 30
0.0
 11
95.2928980626954143
 21
87.1268201845760473
 31
0.0
  0
LINE
  5
D7
100
AcDbEntity
100
AcDbLine
  8
xyuv
 62
7
370
-1
  6
ByLayer
 10
111.6283488133993416
 20
86.3619983406866822
 30
0.0
 11
103.3719849295834621
 21
86.7996826756916278
 31
0.0
  0
LINE
  5
D8
100
AcDbEntity
100
AcDbLine
  8
xyuv
 62
7
370
-1
  6
ByLayer
 10
120.0715680726718375
 20
85.816394145324665
 30
0.0
 11
111.6283488133993416
 21
86.3619983406866822
 31
0.0
  0
LINE
  5
D9
100
AcDbEntity
100
AcDbLine
  8
xyuv
 62
7
370
-1
  6
ByLayer
 10
128.6549261264599977
 20
85.1697179947486802
 30
0.0
 11
120.0715680726718375
 21
85.816394145324665
 31
0.0
  0
LINE
  5
DA
100
AcDbEntity
100
AcDbLine
  8
xyuv
 62
7
370
-1
  6
ByLayer
 10
137.34667030874391
 20
84.4259917453368445
 30
0.0
 11
128.6549261264599977
 21
85.1697179947486802
 31
0.0
  0
LINE
  5
DB
100
AcDbEntity
100
AcDbLine
  8
xyuv
 62
7
370
-1
  6
ByLayer
 10
146.1565788510828838
 20
83.5874822444014853
 30
0.0
 11
137.34667030874391
 21
84.4259917453368445
 31
0.0
  0
LINE
  5
DC
100
AcDbEntity
100
AcDbLine
  8
xyuv
 62
7
370
-1
  6
ByLayer
 10
138.1389208812493052
 20
81.9718168454919152
 30
0.0
 11
148.4239208812493018
 21
82.6970168454919161
 31
0.0
  0
LINE
  5
DD
100
AcDbEntity
100
AcDbLine
  8
xyuv
 62
7
370
-1
  6
ByLayer
 10
128.8409644347594849
 20
81.353789662433428
 30
0.0
 11
138.1389208812493052
 21
81.9718168454919152
 31
0.0
  0
LINE
  5
DE
100
AcDbEntity
100
AcDbLine
  8
xyuv
 62
7
370
-1
  6
ByLayer
 10
120.265132243215433
 20
80.8632327228317394
 30
0.0
 11
128.8409644347594849
 21
81.353789662433428
 31
0.0
  0
LINE
  5
DF
100
AcDbEntity
100
AcDbLine
  8
xyuv
 62
7
370
-1
  6
ByLayer
 10
111.6174461865894045
 20
80.463663185448155
 30
0.0
 11
120.265132243215433
 21
80.8632327228317394
 31
0.0
  0
LINE
  5
E0
100
AcDbEntity
100
AcDbLine
  8
xyuv
 62
7
370
-1
  6
ByLayer
 10
102.4835175479672671
 20
80.1233286798000819
 30
0.0
 11
111.6174461865894045
 21
80.463663185448155
 31
0.0
  0
LINE
  5
E1
100
AcDbEntity
100
AcDbLine
  8
xyuv
 62
7
370
-1
  6
ByLayer
 10
93.0697892410454415
 20
79.8374948179601347
 30
0.0
 11
102.4835175479672671
 21
80.1233286798000819
 31
0.0
  0
LINE
  5
E2
100
AcDbEntity
100
AcDbLine
  8
xyuv
 62
7
370
-1
  6
ByLayer
 10
85.0
 20
79.6431324295463696
 30
0.0
 11
93.0697892410454415
 21
79.8374948179601347
 31
0.0
  0
LINE
  5
E3
100
AcDbEntity
100
AcDbLine
  8
xyuv
 62
7
370
-1
  6
ByLayer
 10
65.2237210095102142
 20
79.3559471959205496
 30
0.0
 11
75.0
 21
79.4592122968270189
 31
0.0
  0
LINE
  5
E4
100
AcDbEntity
100
AcDbLine
  8
xyuv
 62
7
370
-1
  6
ByLayer
 10
85.0
 20
79.6431324295463696
 30
0.0
 11
85.0
 21
87.3697026948073017
 31
0.0
  0
LINE
  5
E5
100
AcDbEntity
100
AcDbLine
  8
xyuv
 62
7
370
-1
  6
ByLayer
 10
75.0
 20
97.0
 30
0.0
 11
75.0
 21
79.4592122968270189
 31
0.0
  0
LINE
  5
E6
100
AcDbEntity
100
AcDbLine
  8
xyuv
 62
7
370
-1
  6
ByLayer
 10
75.0
 20
97.0
 30
0.0
 11
85.0
 21
97.0
 31
0.0
  0
LINE
  5
E7
100
AcDbEntity
100
AcDbLine
  8
xyuv
 62
7
370
-1
  6
ByLayer
 10
85.0
 20
97.0
 30
0.0
 11
85.0
 21
87.3697026948073017
 31
0.0
  0
POINT
  5
E8
100
AcDbEntity
100
AcDbPoint
  8
xyuv
 62
7
370
-1
  6
ByLayer
 10
5.0999999999999996
 20
97.0
 30
0.0
  0
POINT
  5
E9
100
AcDbEntity
100
AcDbPoint
  8
xyuv
 62
7
370
-1
  6
ByLayer
 10
5.0
 20
80.0
 30
0.0
  0
LINE
  5
EA
100
AcDbEntity
100
AcDbLine
  8
xyuv
 62
7
370
-1
  6
ByLayer
 10
10.0
 20
80.0036000000000058
 30
0.0
 11
5.1000000000000005
 21
80.0
 31
0.0
  0
LINE
  5
EB
100
AcDbEntity
100
AcDbLine
  8
xyuv
 62
7
370
-1
  6
ByLayer
 10
5.0999999999999996
 20
97.0
 30
0.0
 11
5.1000000000000005
 21
80.0
 31
0.0
  0
LINE
  5
EC
100
AcDbEntity
100
AcDbLine
  8
xyuv
 62
7
370
-1
  6
ByLayer
 10
210.0
 20
80.0
 30
0.0
 11
211.0000000000000284
 21
80.0
 31
0.0
  0
LINE
  5
ED
100
AcDbEntity
100
AcDbLine
  8
xyuv
 62
7
370
-1
  6
ByLayer
 10
211.0000000000000284
 20
80.0
 30
0.0
 11
220.0
 21
79.9899999999999949
 31
0.0
  0
LINE
  5
EE
100
AcDbEntity
100
AcDbLine
  8
xyuv
 62
7
370
-1
  6
ByLayer
 10
10.0090000000000003
 20
80.1453999999999951
 30
0.0
 11
10.0
 21
80.0036000000000058
 31
0.0
  0
LINE
  5
EF
100
AcDbEntity
100
AcDbLine
  8
xyuv
 62
7
370
-1
  6
ByLayer
 10
151.5862341732848506
 20
82.8452274578419008
 30
0.0
 11
146.1565788510828838
 21
83.5874822444014853
 31
0.0
  0
LINE
  5
F0
100
AcDbEntity
100
AcDbLine
  8
xyuv
 62
7
370
-1
  6
ByLayer
 10
148.4239208812493018
 20
82.6970168454919161
 30
0.0
 11
151.5862341732848506
 21
82.8452274578419008
 31
0.0
  0
LINE
  5
F1
100
AcDbEntity
100
AcDbLine
  8
xyuv
 62
7
370
-1
  6
ByLayer
 10
74.0
 20
97.0
 30
0.0
 11
5.0999999999999996
 21
97.0
 31
0.0
  0
LINE
  5
F2
100
AcDbEntity
100
AcDbLine
  8
xyuv
 62
7
370
-1
  6
ByLayer
 10
74.0
 20
87.4000000000000057
 30
0.0
 11
74.0
 21
97.0
 31
0.0
  0
LINE
  5
F3
100
AcDbEntity
100
AcDbLine
  8
xyuv
 62
7
370
-1
  6
ByLayer
 10
74.0
 20
87.4000000000000057
 30
0.0
 11
65.474493096020467
 21
87.2639494544596772
 31
0.0
  0
LINE
  5
F4
100
AcDbEntity
100
AcDbLine
  8
xyuv
 62
7
370
-1
  6
ByLayer
 10
86.0
 20
98.0
 30
0.0
 11
4.0
 21
98.0
 31
0.0
  0
LINE
  5
F5
100
AcDbEntity
100
AcDbLine
  8
xyuv
 62
7
370
-1
  6
ByLayer
 10
87.4372152959656432
 20
87.3393817495385321
 30
0.0
 11
86.0
 21
87.4000000000000057
 31
0.0
  0
LINE
  5
F6
100
AcDbEntity
100
AcDbLine
  8
xyuv
 62
7
370
-1
  6
ByLayer
 10
86.0
 20
87.4000000000000057
 30
0.0
 11
86.0
 21
98.0
 31
0.0
  0
LINE
  5
F7
100
AcDbEntity
100
AcDbLine
  8
xyuv
 62
7
370
-1
  6
ByLayer
 10
10.1300000000000008
 20
79.4309999999999974
 30
0.0
 11
10.1674000000000007
 21
79.3584000000000032
 31
0.0
  0
LINE
  5
F8
100
AcDbEntity
100
AcDbLine
  8
xyuv
 62
7
370
-1
  6
ByLayer
 10
4.0
 20
79.0
 30
0.0
 11
4.0
 21
98.0
 31
0.0
  0
LINE
  5
F9
100
AcDbEntity
100
AcDbLine
  8
xyuv
 62
7
370
-1
  6
ByLayer
 10
204.1000000000000227
 20
81.0
 30
0.0
 11
198.5396000000000072
 21
82.0424000000000007
 31
0.0
  0
LINE
  5
FA
100
AcDbEntity
100
AcDbLine
  8
xyuv
 62
7
370
-1
  6
ByLayer
 10
204.1000000000000227
 20
81.0
 30
0.0
 11
220.0
 21
81.0
 31
0.0
  0
LINE
  5
FB
100
AcDbEntity
100
AcDbLine
  8
xyuv
 62
7
370
-1
  6
ByLayer
 10
10.1300000000000008
 20
79.4309999999999974
 30
0.0
 11
4.0
 21
79.0
 31
0.0
  0
ENDSEC
  0
SECTION
  2
OBJECTS
  0
DICTIONARY
  5
C
100
AcDbDictionary
280
0
281
1
  3
ACAD_GROUP
350
D
  3
ACAD_LAYOUT
350
1A
  3
ACAD_MLINESTYLE
350
17
  3
ACAD_PLOTSETTINGS
350
19
  3
ACAD_PLOTSTYLENAME
350
E
  3
AcDbVariableDictionary
350
FC
  0
DICTIONARY
  5
D
100
AcDbDictionary
280
0
281
1
  0
ACDBDICTIONARYWDFLT
  5
E
100
AcDbDictionary
281
1
  3
Normal
350
F
100
AcDbDictionaryWithDefault
340
F
  0
ACDBPLACEHOLDER
  5
F
  0
DICTIONARY
  5
17
100
AcDbDictionary
280
0
281
1
  3
Standard
350
18
  0
MLINESTYLE
  5
18
100
AcDbMlineStyle
  2
STANDARD
 70
0
  3

 62
256
 51
90.0
 52
90.0
 71
2
 49
0.5
 62
256
  6
BYLAYER
 49
-0.5
 62
256
  6
BYLAYER
  0
DICTIONARY
  5
19
100
AcDbDictionary
280
0
281
1
  0
DICTIONARY
  5
1A
100
AcDbDictionary
281
1
  3
Layout1
350
1E
  3
Layout2
350
26
  3
Model
350
22
  0
LAYOUT
  5
1E
100
AcDbPlotSettings
  1

  2
C:\Program Files\AutoCAD 2002\plotters\DWF ePlot (optimized for plotting).pc3
  4

  6

 40
0.0
 41
0.0
 42
0.0
 43
0.0
 44
0.0
 45
0.0
 46
0.0
 47
0.0
 48
0.0
 49
0.0
140
0.0
141
0.0
142
1.0
143
1.0
 70
688
 72
0
 73
0
 74
5
  7

 75
16
147
1.0
148
0.0
149
0.0
100
AcDbLayout
  1
Layout1
 70
1
 71
1
 10
0.0
 20
0.0
 11
420.0
 21
297.0
 12
0.0
 22
0.0
 32
0.0
 14
100000000000000000000.0
 24
100000000000000000000.0
 34
100000000000000000000.0
 15
-100000000000000000000.0
 25
-100000000000000000000.0
 35
-100000000000000000000.0
146
0.0
 13
0.0
 23
0.0
 33
0.0
 16
1.0
 26
0.0
 36
0.0
 17
0.0
 27
1.0
 37
0.0
 76
0
330
1B
  0
LAYOUT
  5
22
100
AcDbPlotSettings
  1

  2
C:\Program Files\AutoCAD 2002\plotters\DWF ePlot (optimized for plotting).pc3
  4

  6

 40
0.0
 41
0.0
 42
0.0
 43
0.0
 44
0.0
 45
0.0
 46
0.0
 47
0.0
 48
0.0
 49
0.0
140
0.0
141
0.0
142
1.0
143
1.0
 70
1712
 72
0
 73
0
 74
0
  7

 75
0
147
1.0
148
0.0
149
0.0
100
AcDbLayout
  1
Model
 70
1
 71
0
 10
0.0
 20
0.0
 11
12.0
 21
9.0
 12
0.0
 22
0.0
 32
0.0
 14
0.0
 24
0.0
 34
0.0
 15
0.0
 25
0.0
 35
0.0
146
0.0
 13
0.0
 23
0.0
 33
0.0
 16
1.0
 26
0.0
 36
0.0
 17
0.0
 27
1.0
 37
0.0
 76
0
330
1F
  0
LAYOUT
  5
26
100
AcDbPlotSettings
  1

  2
C:\Program Files\AutoCAD 2002\plotters\DWF ePlot (optimized for plotting).pc3
  4

  6

 40
0.0
 41
0.0
 42
0.0
 43
0.0
 44
0.0
 45
0.0
 46
0.0
 47
0.0
 48
0.0
 49
0.0
140
0.0
141
0.0
142
1.0
143
1.0
 70
688
 72
0
 73
0
 74
5
  7

 75
16
147
1.0
148
0.0
149
0.0
100
AcDbLayout
  1
Layout2
 70
1
 71
2
 10
0.0
 20
0.0
 11
12.0
 21
9.0
 12
0.0
 22
0.0
 32
0.0
 14
0.0
 24
0.0
 34
0.0
 15
0.0
 25
0.0
 35
0.0
146
0.0
 13
0.0
 23
0.0
 33
0.0
 16
1.0
 26
0.0
 36
0.0
 17
0.0
 27
1.0
 37
0.0
 76
0
330
23
  0
DICTIONARY
  5
FC
100
AcDbDictionary
281
1
  3
DIMASSOC
350
FE
  3
HIDETEXT
350
FD
  0
DICTIONARYVAR
  5
FD
100
DictionaryVariables
280
0
  1
2
  0
DICTIONARYVAR
  5
FE
100
DictionaryVariables
280
0
  1
1
  0
ENDSEC
  0
EOF
